{
  "current": {
    "colors_accent_1": "#80411e",
    "social_twitter_link": "https:\/\/twitter.com\/shopify",
    "social_facebook_link": "https:\/\/facebook.com\/shopify",
    "social_pinterest_link": "https:\/\/pinterest.com\/shopify",
    "social_instagram_link": "http:\/\/instagram.com\/shopify",
    "currency_code_enabled": false,
    "sections": {
      "announcement-bar": {
        "type": "announcement-bar",
        "blocks": {
          "announcement-bar-0": {
            "type": "announcement",
            "settings": {
              "text": "Coffee Time ☕",
              "color_scheme": "accent-1",
              "link": ""
            }
          }
        },
        "block_order": [
          "announcement-bar-0"
        ],
        "settings": {}
      },
      "header": {
        "type": "header",
        "settings": {
          "logo": "shopify:\/\/shop_images\/logo_1.png",
          "logo_width": 200,
          "logo_position": "middle-left",
          "menu": "main-menu",
          "show_line_separator": true,
          "enable_sticky_header": true
        }
      },
      "footer": {
        "type": "footer",
        "blocks": {
          "0f6fbe78-1f2d-43cc-a31f-cef7a30ede1e": {
            "type": "link_list",
            "settings": {
              "heading": "Navigation",
              "menu": "main-menu"
            }
          },
          "eafc51fa-4b32-4fc8-8543-dfb27d374bd2": {
            "type": "link_list",
            "settings": {
              "heading": "Information",
              "menu": "footer"
            }
          },
          "0610db56-0e89-4b77-bde0-17d16dc7d6c7": {
            "type": "text",
            "settings": {
              "heading": "Slate Coffee",
              "subtext": "<p>📍 3592 Baker Avenue<br\/>Fort Worth, TX 76102<\/p><p>📞 817-870-2790<\/p><p>📧 Hello@SlateCoffee.com<\/p><p><\/p>"
            }
          }
        },
        "block_order": [
          "0f6fbe78-1f2d-43cc-a31f-cef7a30ede1e",
          "eafc51fa-4b32-4fc8-8543-dfb27d374bd2",
          "0610db56-0e89-4b77-bde0-17d16dc7d6c7"
        ],
        "settings": {
          "color_scheme": "background-1",
          "newsletter_enable": true,
          "newsletter_heading": "4 Coffee Lovers 🤎",
          "show_social": true,
          "enable_country_selector": true,
          "enable_language_selector": true,
          "payment_enable": true
        }
      }
    },
    "content_for_index": []
  }
}