{
  "sections": {
    "main": {
      "type": "main-page",
      "settings": {}
    },
    "1647612528ece28d09": {
      "type": "image-with-text",
      "blocks": {
        "1647612528fd57890b-0": {
          "type": "heading",
          "settings": {
            "heading": "Founder Emma"
          }
        },
        "1647612528fd57890b-1": {
          "type": "text",
          "settings": {
            "text": "<p>Pair text with an image to focus on your chosen product, collection, or blog post. Add details on availability, style, or even provide a review.<\/p>"
          }
        }
      },
      "block_order": [
        "1647612528fd57890b-0",
        "1647612528fd57890b-1"
      ],
      "settings": {
        "image": "shopify:\/\/shop_images\/about_1.jpg",
        "height": "adapt",
        "color_scheme": "background-1",
        "layout": "image_first"
      }
    },
    "164761270274d3a2bb": {
      "type": "image-with-text",
      "blocks": {
        "1647612702a3887bea-0": {
          "type": "heading",
          "settings": {
            "heading": "Family Tradition"
          }
        },
        "1647612702a3887bea-1": {
          "type": "text",
          "settings": {
            "text": "<p>Pair text with an image to focus on your chosen product, collection, or blog post. Add details on availability, style, or even provide a review.<\/p>"
          }
        }
      },
      "block_order": [
        "1647612702a3887bea-0",
        "1647612702a3887bea-1"
      ],
      "settings": {
        "image": "shopify:\/\/shop_images\/about_2.jpg",
        "height": "adapt",
        "color_scheme": "background-1",
        "layout": "text_first"
      }
    },
    "1647612709c6210351": {
      "type": "image-with-text",
      "blocks": {
        "1647612709bac6dea0-0": {
          "type": "heading",
          "settings": {
            "heading": "12 Months Barista"
          }
        },
        "1647612709bac6dea0-1": {
          "type": "text",
          "settings": {
            "text": "<p>Pair text with an image to focus on your chosen product, collection, or blog post. Add details on availability, style, or even provide a review.<\/p>"
          }
        }
      },
      "block_order": [
        "1647612709bac6dea0-0",
        "1647612709bac6dea0-1"
      ],
      "settings": {
        "image": "shopify:\/\/shop_images\/about_3.jpg",
        "height": "adapt",
        "color_scheme": "background-1",
        "layout": "image_first"
      }
    },
    "1647612714e5f361f0": {
      "type": "image-with-text",
      "blocks": {
        "1647612714c8f09107-0": {
          "type": "heading",
          "settings": {
            "heading": "Excellence"
          }
        },
        "1647612714c8f09107-1": {
          "type": "text",
          "settings": {
            "text": "<p>Pair text with an image to focus on your chosen product, collection, or blog post. Add details on availability, style, or even provide a review.<\/p>"
          }
        },
        "1647612714c8f09107-2": {
          "type": "button",
          "settings": {
            "button_label": "Try it Yourself",
            "button_link": "shopify:\/\/collections\/all"
          }
        }
      },
      "block_order": [
        "1647612714c8f09107-0",
        "1647612714c8f09107-1",
        "1647612714c8f09107-2"
      ],
      "settings": {
        "image": "shopify:\/\/shop_images\/about_4.jpg",
        "height": "adapt",
        "color_scheme": "background-1",
        "layout": "text_first"
      }
    },
    "164761271838dfaf79": {
      "type": "featured-collection",
      "settings": {
        "title": "",
        "collection": "coffee",
        "products_to_show": 4,
        "show_view_all": false,
        "swipe_on_mobile": true,
        "image_ratio": "adapt",
        "show_secondary_image": false,
        "add_image_padding": false,
        "show_image_outline": false,
        "show_vendor": false
      }
    }
  },
  "order": [
    "main",
    "1647612528ece28d09",
    "164761270274d3a2bb",
    "1647612709c6210351",
    "1647612714e5f361f0",
    "164761271838dfaf79"
  ]
}